…
``` r
brfssnew_data=brfss_smart2010 %>%
  janitor::clean_names()  %>%
  filter(topic=="Overall Health")   %>%
  select(year,locationabbr, locationdesc, response, data_value)%>%
  spread(key=response, value= data_value) %>%
  #clean the names, filter the overall health topic, drop other variables and turning data from long to wide
  
  janitor::clean_names()
  #clean the names again after spreading

brfssnew_data
```

    ## # A tibble: 2,125 x 8
    ##     year locationabbr locationdesc   excellent  fair  good  poor very_good
    ##    <int> <chr>        <chr>              <dbl> <dbl> <dbl> <dbl>     <dbl>
    ##  1  2002 AK           AK - Anchorag~      27.9   8.6  23.8   5.9      33.7
    ##  2  2002 AL           AL - Jefferso~      18.5  12.1  32.7   5.9      30.9
    ##  3  2002 AR           AR - Pulaski ~      24.1  12.5  29.9   4.2      29.3
    ##  4  2002 AZ           AZ - Maricopa~      21.6  10.3  26.9   4.6      36.6
    ##  5  2002 AZ           AZ - Pima Cou~      26.6   7.5  31.9   3.9      30.1
    ##  6  2002 CA           CA - Los Ange~      22.7  14.3  28.7   4.5      29.8
    ##  7  2002 CO           CO - Adams Co~      21.2  14.4  29     4.2      31.2
    ##  8  2002 CO           CO - Arapahoe~      25.5   8    29.3   2.1      35.2
    ##  9  2002 CO           CO - Denver C~      22.2  11.1  36.6   3        27.1
    ## 10  2002 CO           CO - Jefferso~      23.4  11.4  26.3   2.4      36.6
    ## # ... with 2,115 more rows
…
Question 4: This is the panel showing for each year and state, the mean proportion of each category over time.

Problem 2
---------

``` r
data(instacart)

instacart
```

    ## # A tibble: 1,384,617 x 15
    ##    order_id product_id add_to_cart_ord~ reordered user_id eval_set
    ##       <int>      <int>            <int>     <int>   <int> <chr>   
    ##  1        1      49302                1         1  112108 train   
    ##  2        1      11109                2         1  112108 train   
    ##  3        1      10246                3         0  112108 train   
    ##  4        1      49683                4         0  112108 train   
    ##  5        1      43633                5         1  112108 train   
    ##  6        1      13176                6         0  112108 train   
    ##  7        1      47209                7         0  112108 train   
    ##  8        1      22035                8         1  112108 train   
    ##  9       36      39612                1         0   79431 train   
    ## 10       36      19660                2         1   79431 train   
    ## # ... with 1,384,607 more rows, and 9 more variables: order_number <int>,
    ## #   order_dow <int>, order_hour_of_day <int>,
    ## #   days_since_prior_order <int>, product_name <chr>, aisle_id <int>,
    ## #   department_id <int>, aisle <chr>, department <chr>

The dimension of dataset instacart is 1384617 by 15. The main variables are order\_id, product\_id, user\_id, order\_number, product\_name , aisle\_id, department. Above is the sample observations of the dataset.

Question 1: There are 134 aisles.

``` r
aisle_count=count(instacart,aisle) %>%
arrange(desc(n))
print(aisle_count, n=10)
```

    ## # A tibble: 134 x 2
    ##    aisle                              n
    ##    <chr>                          <int>
    ##  1 fresh vegetables              150609
    ##  2 fresh fruits                  150473
    ##  3 packaged vegetables fruits     78493
    ##  4 yogurt                         55240
    ##  5 packaged cheese                41699
    ##  6 water seltzer sparkling water  36617
    ##  7 milk                           32644
    ##  8 chips pretzels                 31269
    ##  9 soy lactosefree                26240
    ## 10 bread                          23635
    ## # ... with 124 more rows
…
This is a 2\*7 table showing for each day of the week, the mean hour of ordering for each item.

Problem 3
---------

``` r
data(ny_noaa)

ny_noaa
```

    ## # A tibble: 2,595,176 x 7
    ##    id          date        prcp  snow  snwd tmax  tmin 
    ##    <chr>       <date>     <int> <int> <int> <chr> <chr>
    ##  1 US1NYAB0001 2007-11-01    NA    NA    NA <NA>  <NA> 
    ##  2 US1NYAB0001 2007-11-02    NA    NA    NA <NA>  <NA> 
    ##  3 US1NYAB0001 2007-11-03    NA    NA    NA <NA>  <NA> 
    ##  4 US1NYAB0001 2007-11-04    NA    NA    NA <NA>  <NA> 
    ##  5 US1NYAB0001 2007-11-05    NA    NA    NA <NA>  <NA> 
    ##  6 US1NYAB0001 2007-11-06    NA    NA    NA <NA>  <NA> 
    ##  7 US1NYAB0001 2007-11-07    NA    NA    NA <NA>  <NA> 
    ##  8 US1NYAB0001 2007-11-08    NA    NA    NA <NA>  <NA> 
    ##  9 US1NYAB0001 2007-11-09    NA    NA    NA <NA>  <NA> 
    ## 10 US1NYAB0001 2007-11-10    NA    NA    NA <NA>  <NA> 
    ## # ... with 2,595,166 more rows

The dimension of dataset instacart is 2595176 by 7. The main variables are id,date,prcp, snow, snwd, tmax, tmin. Above is the sample observations of the dataset. tmax and tmin are the varibles that have the most missing values. The proportion of missing data in tmax is 43.7102532%. The proportion of missing data in tmin is 43.7126422%.

Question 1:

``` r
ny_noaa2=ny_noaa %>%
separate("date", c("Year", "Month", "Day"), sep = "-") 
```

``` r
count(ny_noaa2, snow)
```

    ## # A tibble: 282 x 2
    ##     snow       n
    ##    <int>   <int>
    ##  1   -13       1
    ##  2     0 2008508
    ##  3     3    8790
    ##  4     5    9748
    ##  5     8    9962
    ##  6    10    5106
    ##  7    13   23095
    ##  8    15    3672
    ##  9    18    3226
    ## 10    20    4797
    ## # ... with 272 more rows
…
